IDS/simulation/qsim/FPGA.msim.vcd
$comment
	File created using the following command:
		vcd file FPGA.msim.vcd -direction
$end
$date
	Thu Oct 28 11:09:54 2021
$end
$version
	ModelSim Version 2020.1
$end
$timescale
	1ps
$end

$scope module FPGA_vlg_vec_tst $end
$var reg 1 ! b0 $end
$var reg 1 " b1 $end
$var reg 1 # b2 $end
$var reg 1 $ b3 $end
$var reg 1 % Clock $end
$var wire 1 & Debounced [3] $end
$var wire 1 ' Debounced [2] $end
$var wire 1 ( Debounced [1] $end
$var wire 1 ) Debounced [0] $end
$var wire 1 * Di0 [3] $end
$var wire 1 + Di0 [2] $end
$var wire 1 , Di0 [1] $end
$var wire 1 - Di0 [0] $end
$var wire 1 . display1 $end
$var wire 1 / display2 $end
$var wire 1 0 display3 $end
$var wire 1 1 display4 $end
$var wire 1 2 Pulse $end
$var wire 1 3 segA $end
$var wire 1 4 segB $end
$var wire 1 5 segC $end
$var wire 1 6 segD $end
$var wire 1 7 segE $end
$var wire 1 8 segF $end
$var wire 1 9 segG $end
$var wire 1 : SSD0 [6] $end
$var wire 1 ; SSD0 [5] $end
$var wire 1 < SSD0 [4] $end
$var wire 1 = SSD0 [3] $end
$var wire 1 > SSD0 [2] $end
$var wire 1 ? SSD0 [1] $end
$var wire 1 @ SSD0 [0] $end
$var wire 1 A State [2] $end
$var wire 1 B State [1] $end
$var wire 1 C State [0] $end

$scope module i1 $end
$var wire 1 D gnd $end
$var wire 1 E vcc $end
$var wire 1 F unknown $end
$var tri1 1 G devclrn $end
$var tri1 1 H devpor $end
$var tri1 1 I devoe $end
$var wire 1 J segA~output_o $end
$var wire 1 K segB~output_o $end
$var wire 1 L segC~output_o $end
$var wire 1 M segD~output_o $end
$var wire 1 N segE~output_o $end
$var wire 1 O segF~output_o $end
$var wire 1 P segG~output_o $end
$var wire 1 Q display1~output_o $end
$var wire 1 R display2~output_o $end
$var wire 1 S display3~output_o $end
$var wire 1 T display4~output_o $end
$var wire 1 U Pulse~output_o $end
$var wire 1 V Debounced[3]~output_o $end
$var wire 1 W Debounced[2]~output_o $end
$var wire 1 X Debounced[1]~output_o $end
$var wire 1 Y Debounced[0]~output_o $end
$var wire 1 Z Di0[3]~output_o $end
$var wire 1 [ Di0[2]~output_o $end
$var wire 1 \ Di0[1]~output_o $end
$var wire 1 ] Di0[0]~output_o $end
$var wire 1 ^ SSD0[6]~output_o $end
$var wire 1 _ SSD0[5]~output_o $end
$var wire 1 ` SSD0[4]~output_o $end
$var wire 1 a SSD0[3]~output_o $end
$var wire 1 b SSD0[2]~output_o $end
$var wire 1 c SSD0[1]~output_o $end
$var wire 1 d SSD0[0]~output_o $end
$var wire 1 e State[2]~output_o $end
$var wire 1 f State[1]~output_o $end
$var wire 1 g State[0]~output_o $end
$var wire 1 h Clock~input_o $end
$var wire 1 i Clock~inputclkctrl_outclk $end
$var wire 1 j MUX|FrequencyDivider|auto_generated|counter_comb_bita0~combout $end
$var wire 1 k MUX|FrequencyDivider|auto_generated|counter_comb_bita0~COUT $end
$var wire 1 l MUX|FrequencyDivider|auto_generated|counter_comb_bita1~combout $end
$var wire 1 m MUX|FrequencyDivider|auto_generated|counter_comb_bita1~COUT $end
$var wire 1 n MUX|FrequencyDivider|auto_generated|counter_comb_bita2~combout $end
$var wire 1 o MUX|FrequencyDivider|auto_generated|counter_comb_bita2~COUT $end
$var wire 1 p MUX|FrequencyDivider|auto_generated|counter_comb_bita3~combout $end
$var wire 1 q MUX|FrequencyDivider|auto_generated|counter_comb_bita3~COUT $end
$var wire 1 r MUX|FrequencyDivider|auto_generated|counter_comb_bita4~combout $end
$var wire 1 s MUX|FrequencyDivider|auto_generated|counter_comb_bita4~COUT $end
$var wire 1 t MUX|FrequencyDivider|auto_generated|counter_comb_bita5~combout $end
$var wire 1 u MUX|FrequencyDivider|auto_generated|counter_comb_bita5~COUT $end
$var wire 1 v MUX|FrequencyDivider|auto_generated|counter_comb_bita6~combout $end
$var wire 1 w MUX|FrequencyDivider|auto_generated|counter_comb_bita6~COUT $end
$var wire 1 x MUX|FrequencyDivider|auto_generated|counter_comb_bita7~combout $end
$var wire 1 y MUX|FrequencyDivider|auto_generated|counter_comb_bita7~COUT $end
$var wire 1 z MUX|FrequencyDivider|auto_generated|counter_comb_bita8~combout $end
$var wire 1 { MUX|FrequencyDivider|auto_generated|counter_comb_bita8~COUT $end
$var wire 1 | MUX|FrequencyDivider|auto_generated|counter_comb_bita9~combout $end
$var wire 1 } MUX|FrequencyDivider|auto_generated|counter_comb_bita9~COUT $end
$var wire 1 ~ MUX|FrequencyDivider|auto_generated|counter_comb_bita10~combout $end
$var wire 1 !! MUX|FrequencyDivider|auto_generated|counter_comb_bita10~COUT $end
$var wire 1 "! MUX|FrequencyDivider|auto_generated|counter_comb_bita11~combout $end
$var wire 1 #! MUX|FrequencyDivider|auto_generated|counter_comb_bita11~COUT $end
$var wire 1 $! MUX|FrequencyDivider|auto_generated|counter_comb_bita12~combout $end
$var wire 1 %! MUX|inst2|inst~0_combout $end
$var wire 1 &! MUX|inst2|inst~feeder_combout $end
$var wire 1 '! MUX|inst2|inst~q $end
$var wire 1 (! MUX|inst2|inst1~0_combout $end
$var wire 1 )! MUX|inst2|inst1~q $end
$var wire 1 *! inst|inst4|inst5|auto_generated|counter_comb_bita0~combout $end
$var wire 1 +! inst|inst4|inst5|auto_generated|counter_comb_bita0~COUT $end
$var wire 1 ,! inst|inst4|inst5|auto_generated|counter_comb_bita1~combout $end
$var wire 1 -! inst|inst4|inst5|auto_generated|counter_comb_bita1~COUT $end
$var wire 1 .! inst|inst4|inst5|auto_generated|counter_comb_bita2~combout $end
$var wire 1 /! inst|inst4|inst5|auto_generated|counter_comb_bita2~COUT $end
$var wire 1 0! inst|inst4|inst5|auto_generated|counter_comb_bita3~combout $end
$var wire 1 1! inst|inst4|inst5|auto_generated|counter_comb_bita3~COUT $end
$var wire 1 2! inst|inst4|inst5|auto_generated|counter_comb_bita4~combout $end
$var wire 1 3! inst|inst4|inst5|auto_generated|counter_reg_bit[4]~clkctrl_outclk $end
$var wire 1 4! inst|inst4|inst|inst|inst4|inst~0_combout $end
$var wire 1 5! b0~input_o $end
$var wire 1 6! inst2|inst~0_combout $end
$var wire 1 7! inst2|inst~q $end
$var wire 1 8! inst2|inst1~feeder_combout $end
$var wire 1 9! inst2|inst1~q $end
$var wire 1 :! inst2|inst2~q $end
$var wire 1 ;! inst2|inst4~0_combout $end
$var wire 1 <! inst|edge|inst|inst~combout $end
$var wire 1 =! inst|edge|inst|inst3~combout $end
$var wire 1 >! b3~input_o $end
$var wire 1 ?! inst5|inst~0_combout $end
$var wire 1 @! inst5|inst~q $end
$var wire 1 A! inst5|inst1~q $end
$var wire 1 B! inst5|inst2~q $end
$var wire 1 C! inst5|inst4~0_combout $end
$var wire 1 D! inst|edge|inst3|inst~combout $end
$var wire 1 E! inst|edge|inst3|inst3~combout $end
$var wire 1 F! b1~input_o $end
$var wire 1 G! inst3|inst~0_combout $end
$var wire 1 H! inst3|inst~feeder_combout $end
$var wire 1 I! inst3|inst~q $end
$var wire 1 J! inst3|inst1~q $end
$var wire 1 K! inst3|inst2~q $end
$var wire 1 L! inst3|inst4~0_combout $end
$var wire 1 M! inst|edge|inst1|inst~combout $end
$var wire 1 N! inst|edge|inst1|inst3~combout $end
$var wire 1 O! b2~input_o $end
$var wire 1 P! inst4|inst~0_combout $end
$var wire 1 Q! inst4|inst~q $end
$var wire 1 R! inst4|inst1~feeder_combout $end
$var wire 1 S! inst4|inst1~q $end
$var wire 1 T! inst4|inst2~q $end
$var wire 1 U! inst4|inst4~0_combout $end
$var wire 1 V! inst|edge|inst2|inst~combout $end
$var wire 1 W! inst|edge|inst2|inst3~combout $end
$var wire 1 X! inst|or~combout $end
$var wire 1 Y! inst|inst4|inst|inst|inst4|inst~q $end
$var wire 1 Z! inst|inst4|inst|inst|inst4|inst5~combout $end
$var wire 1 [! inst|inst4|inst|inst|inst4|inst1~q $end
$var wire 1 \! inst|inst4|inst|inst|inst4|inst2~0_combout $end
$var wire 1 ]! inst|inst4|inst|inst|inst4|inst2~q $end
$var wire 1 ^! inst|inst4|inst|inst|inst4|inst4~combout $end
$var wire 1 _! inst|inst4|inst|inst|inst4|inst3~q $end
$var wire 1 `! inst|inst4|inst|inst|inst4|inst11~combout $end
$var wire 1 a! inst|inst4|inst|inst|inst5|inst~0_combout $end
$var wire 1 b! inst|inst4|inst|inst|inst5|inst~feeder_combout $end
$var wire 1 c! inst|inst4|inst|inst|inst5|inst~q $end
$var wire 1 d! inst|inst4|inst|inst|inst5|inst2~0_combout $end
$var wire 1 e! inst|inst4|inst|inst|inst5|inst2~q $end
$var wire 1 f! inst|inst4|inst|inst|inst5|inst4~combout $end
$var wire 1 g! inst|inst4|inst|inst|inst5|inst3~feeder_combout $end
$var wire 1 h! inst|inst4|inst|inst|inst5|inst3~q $end
$var wire 1 i! inst|inst4|inst|inst|inst5|inst5~combout $end
$var wire 1 j! inst|inst4|inst|inst|inst5|inst1~q $end
$var wire 1 k! inst|inst|State_ALTERA_SYNTHESIZED[1]~5_combout $end
$var wire 1 l! inst|inst|State_ALTERA_SYNTHESIZED[1]~6_combout $end
$var wire 1 m! inst|inst|State_ALTERA_SYNTHESIZED[1]~7_combout $end
$var wire 1 n! inst|inst|State_ALTERA_SYNTHESIZED[2]~0_combout $end
$var wire 1 o! inst|inst|State_ALTERA_SYNTHESIZED[2]~1_combout $end
$var wire 1 p! inst|inst|State_ALTERA_SYNTHESIZED[0]~2_combout $end
$var wire 1 q! inst|inst|State_ALTERA_SYNTHESIZED[0]~3_combout $end
$var wire 1 r! inst|inst|State_ALTERA_SYNTHESIZED[0]~4_combout $end
$var wire 1 s! inst|inst4|BCd~0_combout $end
$var wire 1 t! inst|inst4|inst2|inst|inst~0_combout $end
$var wire 1 u! inst|inst4|inst2|inst|inst~feeder_combout $end
$var wire 1 v! inst|inst4|inst2|inst|inst~q $end
$var wire 1 w! inst|inst4|inst2|inst|inst1~0_combout $end
$var wire 1 x! inst|inst4|inst2|inst|inst1~feeder_combout $end
$var wire 1 y! inst|inst4|inst2|inst|inst1~q $end
$var wire 1 z! inst|inst4|inst2|inst|inst5~0_combout $end
$var wire 1 {! inst|inst4|inst2|inst|inst5~feeder_combout $end
$var wire 1 |! inst|inst4|inst2|inst|inst5~q $end
$var wire 1 }! inst|inst4|inst2|inst|inst6~0_combout $end
$var wire 1 ~! inst|inst4|inst2|inst|inst6~feeder_combout $end
$var wire 1 !" inst|inst4|inst2|inst|inst6~q $end
$var wire 1 "" inst|inst4|inst2|inst1|inst~0_combout $end
$var wire 1 #" inst|inst4|inst2|inst1|inst~q $end
$var wire 1 $" inst|inst4|inst2|inst1|inst1~0_combout $end
$var wire 1 %" inst|inst4|inst2|inst1|inst1~feeder_combout $end
$var wire 1 &" inst|inst4|inst2|inst1|inst1~q $end
$var wire 1 '" inst|inst4|Hex~combout $end
$var wire 1 (" inst|inst4|inst10|inst4|inst2~combout $end
$var wire 1 )" inst|inst4|inst10|inst3|inst2~combout $end
$var wire 1 *" inst|inst4|inst2|inst1|inst5~0_combout $end
$var wire 1 +" inst|inst4|inst2|inst1|inst5~feeder_combout $end
$var wire 1 ," inst|inst4|inst2|inst1|inst5~q $end
$var wire 1 -" inst|inst4|inst10|inst5|inst2~combout $end
$var wire 1 ." inst|inst4|inst2|inst1|inst6~0_combout $end
$var wire 1 /" inst|inst4|inst2|inst1|inst6~feeder_combout $end
$var wire 1 0" inst|inst4|inst2|inst1|inst6~q $end
$var wire 1 1" inst|inst4|inst10|inst6|inst2~combout $end
$var wire 1 2" MUX|inst3|inst3|inst2~2_combout $end
$var wire 1 3" MUX|inst3|inst3|inst2~3_combout $end
$var wire 1 4" MUX|inst3|inst2|inst|inst9~1_combout $end
$var wire 1 5" inst|inst4|inst2|inst2|inst~0_combout $end
$var wire 1 6" inst|inst4|inst2|inst2|inst~feeder_combout $end
$var wire 1 7" inst|inst4|inst2|inst2|inst~q $end
$var wire 1 8" inst|inst4|inst2|inst2|inst1~0_combout $end
$var wire 1 9" inst|inst4|inst2|inst2|inst1~feeder_combout $end
$var wire 1 :" inst|inst4|inst2|inst2|inst1~q $end
$var wire 1 ;" inst|inst4|inst2|inst2|inst5~0_combout $end
$var wire 1 <" inst|inst4|inst2|inst2|inst5~feeder_combout $end
$var wire 1 =" inst|inst4|inst2|inst2|inst5~q $end
$var wire 1 >" inst|inst4|inst|inst|inst5|inst11~combout $end
$var wire 1 ?" inst|inst4|inst|inst|inst6|inst~0_combout $end
$var wire 1 @" inst|inst4|inst|inst|inst6|inst~q $end
$var wire 1 A" inst|inst4|inst|inst|inst6|inst4~combout $end
$var wire 1 B" inst|inst4|inst|inst|inst6|inst3~q $end
$var wire 1 C" inst|inst4|inst|inst|inst6|inst5~combout $end
$var wire 1 D" inst|inst4|inst|inst|inst6|inst1~q $end
$var wire 1 E" inst|inst4|inst|inst|inst6|inst2~0_combout $end
$var wire 1 F" inst|inst4|inst|inst|inst6|inst2~q $end
$var wire 1 G" inst|inst4|inst11|inst5|inst2~combout $end
$var wire 1 H" inst|inst4|inst11|inst4|inst2~combout $end
$var wire 1 I" inst|inst4|inst11|inst3|inst2~combout $end
$var wire 1 J" inst|inst4|inst2|inst2|inst6~0_combout $end
$var wire 1 K" inst|inst4|inst2|inst2|inst6~feeder_combout $end
$var wire 1 L" inst|inst4|inst2|inst2|inst6~q $end
$var wire 1 M" inst|inst4|inst11|inst6|inst2~combout $end
$var wire 1 N" MUX|inst3|inst3|inst2~0_combout $end
$var wire 1 O" MUX|inst3|inst2|inst|inst9~0_combout $end
$var wire 1 P" MUX|inst3|inst4|inst|inst7~combout $end
$var wire 1 Q" inst|inst4|inst9|inst3|inst2~combout $end
$var wire 1 R" inst|inst4|inst9|inst4|inst2~combout $end
$var wire 1 S" inst|inst4|inst9|inst6|inst2~combout $end
$var wire 1 T" inst|inst4|inst9|inst5|inst2~combout $end
$var wire 1 U" Dig0|inst|instA~0_combout $end
$var wire 1 V" MUX|inst3|inst3|inst2~1_combout $end
$var wire 1 W" inst|inst4|inst2|inst3|inst~0_combout $end
$var wire 1 X" inst|inst4|inst2|inst3|inst~feeder_combout $end
$var wire 1 Y" inst|inst4|inst2|inst3|inst~q $end
$var wire 1 Z" inst|inst4|inst2|inst3|inst1~0_combout $end
$var wire 1 [" inst|inst4|inst2|inst3|inst1~feeder_combout $end
$var wire 1 \" inst|inst4|inst2|inst3|inst1~q $end
$var wire 1 ]" inst|inst4|inst|inst|inst6|inst11~combout $end
$var wire 1 ^" inst|inst4|inst|inst|inst6|inst11~clkctrl_outclk $end
$var wire 1 _" inst|inst4|inst|inst|inst7|inst~0_combout $end
$var wire 1 `" inst|inst4|inst|inst|inst7|inst~q $end
$var wire 1 a" inst|inst4|inst|inst|inst7|inst2~0_combout $end
$var wire 1 b" inst|inst4|inst|inst|inst7|inst2~q $end
$var wire 1 c" inst|inst4|inst|inst|inst7|inst4~combout $end
$var wire 1 d" inst|inst4|inst|inst|inst7|inst3~q $end
$var wire 1 e" inst|inst4|inst|inst|inst7|inst5~combout $end
$var wire 1 f" inst|inst4|inst|inst|inst7|inst1~q $end
$var wire 1 g" inst|inst4|inst12|inst4|inst2~combout $end
$var wire 1 h" inst|inst4|inst12|inst3|inst2~combout $end
$var wire 1 i" inst|inst4|inst2|inst3|inst5~0_combout $end
$var wire 1 j" inst|inst4|inst2|inst3|inst5~feeder_combout $end
$var wire 1 k" inst|inst4|inst2|inst3|inst5~q $end
$var wire 1 l" inst|inst4|inst2|inst3|inst6~0_combout $end
$var wire 1 m" inst|inst4|inst2|inst3|inst6~q $end
$var wire 1 n" inst|inst4|inst12|inst6|inst2~combout $end
$var wire 1 o" inst|inst4|inst12|inst5|inst2~combout $end
$var wire 1 p" MUX|inst3|inst3|inst2~4_combout $end
$var wire 1 q" MUX|inst3|inst3|inst2~5_combout $end
$var wire 1 r" MUX|inst3|inst2|inst2~2_combout $end
$var wire 1 s" MUX|inst3|inst2|inst2~7_combout $end
$var wire 1 t" MUX|inst3|inst2|inst2~3_combout $end
$var wire 1 u" MUX|inst3|inst2|inst|inst9~2_combout $end
$var wire 1 v" MUX|inst3|inst2|inst2~4_combout $end
$var wire 1 w" MUX|inst3|inst2|inst2~5_combout $end
$var wire 1 x" Dig0|inst|inst40~0_combout $end
$var wire 1 y" MUX|inst3|inst2|inst2~6_combout $end
$var wire 1 z" MUX|inst3|inst1|inst2~4_combout $end
$var wire 1 {" MUX|inst3|inst1|inst2~7_combout $end
$var wire 1 |" MUX|inst3|inst1|inst2~5_combout $end
$var wire 1 }" MUX|inst3|inst1|inst2~2_combout $end
$var wire 1 ~" Dig0|inst|inst42~0_combout $end
$var wire 1 !# MUX|inst3|inst1|inst2~3_combout $end
$var wire 1 "# MUX|inst3|inst1|inst2~6_combout $end
$var wire 1 ## MUX|inst3|inst5|inst5~0_combout $end
$var wire 1 $# MUX|inst3|inst5|inst7~0_combout $end
$var wire 1 %# inst|inst4|inst10|inst3|inst7~combout $end
$var wire 1 &# MUX|inst3|inst5|inst2~4_combout $end
$var wire 1 '# MUX|inst3|inst5|inst2~5_combout $end
$var wire 1 (# MUX|inst3|inst5|inst4~0_combout $end
$var wire 1 )# MUX|inst3|inst5|inst2~6_combout $end
$var wire 1 *# Dig0|inst|instD~0_combout $end
$var wire 1 +# MUX|inst3|inst5|inst2~2_combout $end
$var wire 1 ,# inst|inst4|inst11|inst3|inst5~combout $end
$var wire 1 -# MUX|inst3|inst5|inst2~0_combout $end
$var wire 1 .# MUX|inst3|inst5|inst2~1_combout $end
$var wire 1 /# MUX|inst3|inst5|inst2~3_combout $end
$var wire 1 0# MUX|inst3|inst5|inst2~7_combout $end
$var wire 1 1# MUX|inst3|inst4|inst2~3_combout $end
$var wire 1 2# MUX|inst3|inst4|inst2~2_combout $end
$var wire 1 3# MUX|inst3|inst4|inst2~4_combout $end
$var wire 1 4# MUX|inst3|inst4|inst2~0_combout $end
$var wire 1 5# MUX|inst3|inst4|inst2~1_combout $end
$var wire 1 6# Dig0|inst|inst41~0_combout $end
$var wire 1 7# MUX|inst3|inst4|inst2~5_combout $end
$var wire 1 8# MUX|inst3|inst7|inst2~0_combout $end
$var wire 1 9# Dig0|inst|instF~0_combout $end
$var wire 1 :# MUX|inst3|inst7|inst2~1_combout $end
$var wire 1 ;# MUX|inst3|inst7|inst2~3_combout $end
$var wire 1 <# MUX|inst3|inst7|inst2~2_combout $end
$var wire 1 =# MUX|inst3|inst7|inst2~4_combout $end
$var wire 1 ># MUX|inst3|inst7|inst2~5_combout $end
$var wire 1 ?# MUX|inst3|inst6|inst2~4_combout $end
$var wire 1 @# MUX|inst3|inst6|inst2~7_combout $end
$var wire 1 A# MUX|inst3|inst6|inst2~5_combout $end
$var wire 1 B# Dig0|inst|instG~0_combout $end
$var wire 1 C# MUX|inst3|inst6|inst2~2_combout $end
$var wire 1 D# MUX|inst3|inst6|inst2~3_combout $end
$var wire 1 E# MUX|inst3|inst6|inst2~6_combout $end
$var wire 1 F# inst|inst4|inst5|auto_generated|counter_reg_bit [31] $end
$var wire 1 G# inst|inst4|inst5|auto_generated|counter_reg_bit [30] $end
$var wire 1 H# inst|inst4|inst5|auto_generated|counter_reg_bit [29] $end
$var wire 1 I# inst|inst4|inst5|auto_generated|counter_reg_bit [28] $end
$var wire 1 J# inst|inst4|inst5|auto_generated|counter_reg_bit [27] $end
$var wire 1 K# inst|inst4|inst5|auto_generated|counter_reg_bit [26] $end
$var wire 1 L# inst|inst4|inst5|auto_generated|counter_reg_bit [25] $end
$var wire 1 M# inst|inst4|inst5|auto_generated|counter_reg_bit [24] $end
$var wire 1 N# inst|inst4|inst5|auto_generated|counter_reg_bit [23] $end
$var wire 1 O# inst|inst4|inst5|auto_generated|counter_reg_bit [22] $end
$var wire 1 P# inst|inst4|inst5|auto_generated|counter_reg_bit [21] $end
$var wire 1 Q# inst|inst4|inst5|auto_generated|counter_reg_bit [20] $end
$var wire 1 R# inst|inst4|inst5|auto_generated|counter_reg_bit [19] $end
$var wire 1 S# inst|inst4|inst5|auto_generated|counter_reg_bit [18] $end
$var wire 1 T# inst|inst4|inst5|auto_generated|counter_reg_bit [17] $end
$var wire 1 U# inst|inst4|inst5|auto_generated|counter_reg_bit [16] $end
$var wire 1 V# inst|inst4|inst5|auto_generated|counter_reg_bit [15] $end
$var wire 1 W# inst|inst4|inst5|auto_generated|counter_reg_bit [14] $end
$var wire 1 X# inst|inst4|inst5|auto_generated|counter_reg_bit [13] $end
$var wire 1 Y# inst|inst4|inst5|auto_generated|counter_reg_bit [12] $end
$var wire 1 Z# inst|inst4|inst5|auto_generated|counter_reg_bit [11] $end
$var wire 1 [# inst|inst4|inst5|auto_generated|counter_reg_bit [10] $end
$var wire 1 \# inst|inst4|inst5|auto_generated|counter_reg_bit [9] $end
$var wire 1 ]# inst|inst4|inst5|auto_generated|counter_reg_bit [8] $end
$var wire 1 ^# inst|inst4|inst5|auto_generated|counter_reg_bit [7] $end
$var wire 1 _# inst|inst4|inst5|auto_generated|counter_reg_bit [6] $end
$var wire 1 `# inst|inst4|inst5|auto_generated|counter_reg_bit [5] $end
$var wire 1 a# inst|inst4|inst5|auto_generated|counter_reg_bit [4] $end
$var wire 1 b# inst|inst4|inst5|auto_generated|counter_reg_bit [3] $end
$var wire 1 c# inst|inst4|inst5|auto_generated|counter_reg_bit [2] $end
$var wire 1 d# inst|inst4|inst5|auto_generated|counter_reg_bit [1] $end
$var wire 1 e# inst|inst4|inst5|auto_generated|counter_reg_bit [0] $end
$var wire 1 f# inst|inst|State_ALTERA_SYNTHESIZED [2] $end
$var wire 1 g# inst|inst|State_ALTERA_SYNTHESIZED [1] $end
$var wire 1 h# inst|inst|State_ALTERA_SYNTHESIZED [0] $end
$var wire 1 i# MUX|FrequencyDivider|auto_generated|counter_reg_bit [31] $end
$var wire 1 j# MUX|FrequencyDivider|auto_generated|counter_reg_bit [30] $end
$var wire 1 k# MUX|FrequencyDivider|auto_generated|counter_reg_bit [29] $end
$var wire 1 l# MUX|FrequencyDivider|auto_generated|counter_reg_bit [28] $end
$var wire 1 m# MUX|FrequencyDivider|auto_generated|counter_reg_bit [27] $end
$var wire 1 n# MUX|FrequencyDivider|auto_generated|counter_reg_bit [26] $end
$var wire 1 o# MUX|FrequencyDivider|auto_generated|counter_reg_bit [25] $end
$var wire 1 p# MUX|FrequencyDivider|auto_generated|counter_reg_bit [24] $end
$var wire 1 q# MUX|FrequencyDivider|auto_generated|counter_reg_bit [23] $end
$var wire 1 r# MUX|FrequencyDivider|auto_generated|counter_reg_bit [22] $end
$var wire 1 s# MUX|FrequencyDivider|auto_generated|counter_reg_bit [21] $end
$var wire 1 t# MUX|FrequencyDivider|auto_generated|counter_reg_bit [20] $end
$var wire 1 u# MUX|FrequencyDivider|auto_generated|counter_reg_bit [19] $end
$var wire 1 v# MUX|FrequencyDivider|auto_generated|counter_reg_bit [18] $end
$var wire 1 w# MUX|FrequencyDivider|auto_generated|counter_reg_bit [17] $end
$var wire 1 x# MUX|FrequencyDivider|auto_generated|counter_reg_bit [16] $end
$var wire 1 y# MUX|FrequencyDivider|auto_generated|counter_reg_bit [15] $end
$var wire 1 z# MUX|FrequencyDivider|auto_generated|counter_reg_bit [14] $end
$var wire 1 {# MUX|FrequencyDivider|auto_generated|counter_reg_bit [13] $end
$var wire 1 |# MUX|FrequencyDivider|auto_generated|counter_reg_bit [12] $end
$var wire 1 }# MUX|FrequencyDivider|auto_generated|counter_reg_bit [11] $end
$var wire 1 ~# MUX|FrequencyDivider|auto_generated|counter_reg_bit [10] $end
$var wire 1 !$ MUX|FrequencyDivider|auto_generated|counter_reg_bit [9] $end
$var wire 1 "$ MUX|FrequencyDivider|auto_generated|counter_reg_bit [8] $end
$var wire 1 #$ MUX|FrequencyDivider|auto_generated|counter_reg_bit [7] $end
$var wire 1 $$ MUX|FrequencyDivider|auto_generated|counter_reg_bit [6] $end
$var wire 1 %$ MUX|FrequencyDivider|auto_generated|counter_reg_bit [5] $end
$var wire 1 &$ MUX|FrequencyDivider|auto_generated|counter_reg_bit [4] $end
$var wire 1 '$ MUX|FrequencyDivider|auto_generated|counter_reg_bit [3] $end
$var wire 1 ($ MUX|FrequencyDivider|auto_generated|counter_reg_bit [2] $end
$var wire 1 )$ MUX|FrequencyDivider|auto_generated|counter_reg_bit [1] $end
$var wire 1 *$ MUX|FrequencyDivider|auto_generated|counter_reg_bit [0] $end
$upscope $end
$upscope $end
$enddefinitions $end
#0
$dumpvars
1!
1"
1#
1$
0%
0)
0(
0'
0&
0-
0,
0+
0*
0.
1/
10
11
02
03
04
05
06
07
08
19
1@
1?
1>
1=
1<
1;
0:
0C
0B
0A
0D
1E
xF
1G
1H
1I
0J
0K
0L
0M
0N
0O
1P
0Q
1R
1S
1T
0U
0V
0W
0X
0Y
0Z
0[
0\
0]
0^
1_
1`
1a
1b
1c
1d
0e
0f
0g
0h
0i
1j
0k
0l
1m
0n
0o
0p
1q
0r
0s
0t
1u
0v
0w
0x
1y
0z
0{
0|
1}
0~
0!!
0"!
1#!
0$!
1%!
1&!
0'!
1(!
0)!
1*!
0+!
0,!
1-!
0.!
0/!
00!
11!
02!
03!
14!
15!
06!
07!
08!
09!
0:!
0;!
0<!
1=!
1>!
0?!
0@!
0A!
0B!
0C!
0D!
0E!
1F!
0G!
0H!
0I!
0J!
0K!
0L!
0M!
0N!
1O!
0P!
0Q!
0R!
0S!
0T!
0U!
0V!
0W!
0X!
0Y!
0Z!
0[!
0\!
0]!
0^!
0_!
1`!
1a!
1b!
0c!
0d!
0e!
0f!
0g!
0h!
0i!
0j!
0k!
0l!
0m!
0n!
0o!
0p!
1q!
0r!
0s!
1t!
1u!
0v!
1w!
1x!
0y!
1z!
1{!
0|!
1}!
1~!
0!"
1""
0#"
1$"
1%"
0&"
0'"
0("
0)"
1*"
1+"
0,"
0-"
1."
1/"
00"
01"
12"
03"
04"
15"
16"
07"
18"
19"
0:"
1;"
1<"
0="
1>"
1?"
0@"
0A"
0B"
0C"
0D"
0E"
0F"
0G"
0H"
0I"
1J"
1K"
0L"
0M"
1N"
0O"
0P"
0Q"
0R"
0S"
0T"
1U"
1V"
1W"
1X"
0Y"
1Z"
1["
0\"
1]"
1^"
1_"
0`"
0a"
0b"
0c"
0d"
0e"
0f"
0g"
0h"
1i"
1j"
0k"
1l"
0m"
0n"
0o"
1p"
1q"
1r"
0s"
1t"
0u"
1v"
0w"
1x"
1y"
1z"
0{"
1|"
1}"
1~"
1!#
1"#
0##
0$#
0%#
0&#
0'#
0(#
0)#
1*#
1+#
0,#
0-#
0.#
0/#
10#
11#
12#
03#
14#
05#
16#
17#
18#
19#
1:#
1;#
1<#
0=#
1>#
0?#
0@#
0A#
0B#
0C#
0D#
0E#
0e#
0d#
0c#
0b#
0a#
z`#
z_#
z^#
z]#
z\#
z[#
zZ#
zY#
zX#
zW#
zV#
zU#
zT#
zS#
zR#
zQ#
zP#
zO#
zN#
zM#
zL#
zK#
zJ#
zI#
zH#
zG#
zF#
0h#
0g#
0f#
0*$
0)$
0($
0'$
0&$
0%$
0$$
0#$
0"$
0!$
0~#
0}#
0|#
z{#
zz#
zy#
zx#
zw#
zv#
zu#
zt#
zs#
zr#
zq#
zp#
zo#
zn#
zm#
zl#
zk#
zj#
zi#
$end
#5000
1%
1h
1i
1*$
1k
0j
1l
#10000
0%
0h
0i
1e#
1+!
0*!
1,!
#15000
1%
1h
1i
1)$
0*$
0m
0k
0l
1j
1m
1n
1l
0n
#20000
0#
0$
0%
0O!
0>!
0h
0i
1P!
1?!
0e#
1d#
0+!
0-!
1*!
0,!
1-!
1,!
1.!
0.!
#25000
1%
1h
1i
1Q!
1@!
1*$
1k
1R!
0j
0m
0l
1n
#30000
0%
0h
0i
1e#
1+!
0*!
0-!
0,!
1.!
#35000
1%
1h
1i
1S!
1A!
1($
0)$
0*$
1o
1m
0k
0n
1l
1j
0o
1p
1n
0l
0p
#40000
0%
0h
0i
0e#
0d#
1c#
0+!
1-!
1/!
1*!
1,!
0.!
0/!
0,!
1.!
10!
00!
#45000
1%
1h
1i
1T!
1B!
1*$
1W!
1E!
1k
1U!
1C!
0j
1V
1W
0q!
1'
1&
1X!
1r!
1l
1U
12
0r!
#50000
0%
0h
0i
1V!
1D!
0W!
0E!
1q!
0X!
0U
02
1e#
1+!
0*!
1,!
#55000
1%
1h
1i
1)$
0*$
0m
0k
0l
1j
1o
1m
0n
1l
0o
1p
1n
0p
#60000
1#
1$
0%
1O!
1>!
0h
0i
0P!
0?!
0e#
1d#
0+!
0-!
1*!
0,!
1-!
1/!
1,!
0.!
0/!
1.!
10!
00!
#65000
1%
1h
1i
0Q!
0@!
1*$
1k
0U!
0R!
0C!
0j
0V
0W
0m
0'
0&
0l
1o
0n
1p
#70000
0%
0h
0i
0V!
0D!
1e#
1+!
0*!
0-!
0,!
1/!
0.!
10!
#75000
1%
1h
1i
0S!
0A!
1'$
0($
0)$
0*$
0q
0o
1m
0k
0p
1n
1l
1j
1q
1r
1p
0n
0l
0r
#80000
0%
0h
0i
0e#
0d#
0c#
1b#
0+!
1-!
0/!
01!
1*!
1,!
1.!
00!
11!
0,!
0.!
10!
12!
02!
#85000
1%
1h
1i
0T!
0B!
1*$
1k
0j
1l
#90000
0%
0h
0i
1e#
1+!
0*!
1,!
#95000
1%
1h
1i
1)$
0*$
0m
0k
0l
1j
1m
1n
1l
0n
#100000
0%
0h
0i
0e#
1d#
0+!
0-!
1*!
0,!
1-!
1,!
1.!
0.!
#105000
1%
1h
1i
1*$
1k
0j
0m
0l
1n
