IDS/Lab6/simulation/qsim/Lab6.msim.vcd
$comment
	File created using the following command:
		vcd file Lab6.msim.vcd -direction
$end
$date
	Thu Oct 28 19:52:55 2021
$end
$version
	ModelSim Version 2020.1
$end
$timescale
	1ps
$end

$scope module ALU_vlg_vec_tst $end
$var reg 4 ! A [3:0] $end
$var reg 4 " B [3:0] $end
$var reg 1 # C0 $end
$var reg 1 $ Cin $end
$var reg 1 % S0 $end
$var reg 1 & S1 $end
$var reg 1 ' S2 $end
$var wire 1 ( Cout $end
$var wire 1 ) G [3] $end
$var wire 1 * G [2] $end
$var wire 1 + G [1] $end
$var wire 1 , G [0] $end

$scope module i1 $end
$var wire 1 - gnd $end
$var wire 1 . vcc $end
$var wire 1 / unknown $end
$var tri1 1 0 devclrn $end
$var tri1 1 1 devpor $end
$var tri1 1 2 devoe $end
$var wire 1 3 Cout~output_o $end
$var wire 1 4 G[3]~output_o $end
$var wire 1 5 G[2]~output_o $end
$var wire 1 6 G[1]~output_o $end
$var wire 1 7 G[0]~output_o $end
$var wire 1 8 A[3]~input_o $end
$var wire 1 9 S1~input_o $end
$var wire 1 : S0~input_o $end
$var wire 1 ; B[3]~input_o $end
$var wire 1 < inst3|inst|or~0_combout $end
$var wire 1 = A[1]~input_o $end
$var wire 1 > B[1]~input_o $end
$var wire 1 ? inst2|inst|or~0_combout $end
$var wire 1 @ A[0]~input_o $end
$var wire 1 A Cin~input_o $end
$var wire 1 B B[0]~input_o $end
$var wire 1 C inst4|inst|or~0_combout $end
$var wire 1 D inst4|inst|or~1_combout $end
$var wire 1 E inst2|inst|or~1_combout $end
$var wire 1 F A[2]~input_o $end
$var wire 1 G B[2]~input_o $end
$var wire 1 H inst|inst|or~0_combout $end
$var wire 1 I inst|inst|or~1_combout $end
$var wire 1 J inst3|inst|or~1_combout $end
$var wire 1 K C0~input_o $end
$var wire 1 L inst3|inst3|$00001|auto_generated|result_node[0]~2_combout $end
$var wire 1 M S2~input_o $end
$var wire 1 N inst3|inst3|$00001|auto_generated|result_node[0]~0_combout $end
$var wire 1 O inst3|inst3|$00001|auto_generated|result_node[0]~1_combout $end
$var wire 1 P inst3|inst3|$00001|auto_generated|result_node[0]~3_combout $end
$var wire 1 Q inst|inst3|$00001|auto_generated|result_node[0]~0_combout $end
$var wire 1 R inst|inst3|$00001|auto_generated|result_node[0]~1_combout $end
$var wire 1 S inst|inst3|$00001|auto_generated|result_node[0]~2_combout $end
$var wire 1 T inst|inst3|$00001|auto_generated|result_node[0]~3_combout $end
$var wire 1 U inst2|inst3|$00001|auto_generated|result_node[0]~0_combout $end
$var wire 1 V inst2|inst3|$00001|auto_generated|result_node[0]~1_combout $end
$var wire 1 W inst2|inst3|$00001|auto_generated|result_node[0]~2_combout $end
$var wire 1 X inst2|inst3|$00001|auto_generated|result_node[0]~3_combout $end
$var wire 1 Y inst4|inst3|$00001|auto_generated|result_node[0]~8_combout $end
$var wire 1 Z inst4|inst3|$00001|auto_generated|result_node[0]~10_combout $end
$var wire 1 [ inst4|inst3|$00001|auto_generated|result_node[0]~9_combout $end
$upscope $end
$upscope $end
$enddefinitions $end
#0
$dumpvars
b101 !
b11 "
1#
0$
1%
1&
1'
1(
0,
1+
0*
1)
0-
1.
x/
10
11
12
13
14
05
16
07
08
19
1:
0;
1<
0=
1>
1?
1@
0A
1B
1C
1D
1E
1F
0G
1H
1I
1J
1K
0L
1M
0N
0O
0P
0Q
0R
1S
1T
1U
1V
0W
0X
0Y
1Z
1[
$end
#5000
0&
09
1Q
1N
0H
0<
0J
03
0(
#10000
1&
19
0Q
0N
1H
1<
1J
13
1(
#15000
0&
09
1Q
1N
0H
0<
0J
03
0(
#20000
1$
1&
1A
19
0Z
0Q
0N
1H
1<
1J
13
1(
#35000
0$
0&
0A
09
1Z
1Q
1N
0H
0<
0J
03
0(
#40000
1$
1&
1A
19
0Z
0Q
0N
1H
1<
1J
13
1(
#45000
0&
09
1Q
1N
0H
0<
0J
03
0(
#50000
0$
0A
1Z
#55000
1&
19
0Q
0N
1H
1<
1J
13
1(
#60000
0&
09
1Q
1N
0H
0<
0J
03
0(
#65000
1&
19
0Q
0N
1H
1<
1J
13
1(
#70000
1$
1A
0Z
#75000
0&
09
1Q
1N
0H
0<
0J
03
0(
#80000
1&
19
0Q
0N
1H
1<
1J
13
1(
#85000
0$
0&
0A
09
1Z
1Q
1N
0H
0<
0J
03
0(
#90000
1$
1A
0Z
#100000
1&
0$
19
0A
1Z
0Q
0N
1H
1<
1J
13
1(
#110000
1$
1A
0Z
#115000
0&
0$
09
0A
1Z
1Q
1N
0H
0<
0J
03
0(
#120000
1$
1A
0Z
#125000
1&
19
0Q
0N
1H
1<
1J
13
1(
#130000
0$
0&
0A
09
1Z
1Q
1N
0H
0<
0J
03
0(
#135000
1&
19
0Q
0N
1H
1<
1J
13
1(
#140000
1$
0&
1A
09
0Z
1Q
1N
0H
0<
0J
03
0(
#145000
0$
0A
1Z
#155000
1$
1A
0Z
#160000
1&
19
0Q
0N
1H
1<
1J
13
1(
#165000
0&
09
1Q
1N
0H
0<
0J
03
0(
#175000
0$
0A
1Z
#180000
1&
19
0Q
0N
1H
1<
1J
13
1(
#185000
1$
0&
1A
09
0Z
1Q
1N
0H
0<
0J
03
0(
#190000
1&
19
0Q
0N
1H
1<
1J
13
1(
#200000
0$
0A
1Z
#205000
0&
09
1Q
1N
0H
0<
0J
03
0(
#215000
1&
19
0Q
0N
1H
1<
1J
13
1(
#220000
0&
09
1Q
1N
0H
0<
0J
03
0(
#230000
1&
19
0Q
0N
1H
1<
1J
13
1(
#240000
1$
0&
1A
09
0Z
1Q
1N
0H
0<
0J
03
0(
#245000
1&
19
0Q
0N
1H
1<
1J
13
1(
#250000
0$
0&
0A
09
1Z
1Q
1N
0H
0<
0J
03
0(
#255000
1$
1&
1A
19
0Z
0Q
0N
1H
1<
1J
13
1(
#260000
0$
0A
1Z
#270000
1$
1A
0Z
#275000
0$
0A
1Z
#280000
0&
09
1Q
1N
0H
0<
0J
03
0(
#290000
1$
1&
1A
19
0Z
0Q
0N
1H
1<
1J
13
1(
#295000
0$
0&
0A
09
1Z
1Q
1N
0H
0<
0J
03
0(
#300000
1&
19
0Q
0N
1H
1<
1J
13
1(
#305000
1$
0&
1A
09
0Z
1Q
1N
0H
0<
0J
03
0(
#315000
0$
1&
0A
19
1Z
0Q
0N
1H
1<
1J
13
1(
#320000
1$
1A
0Z
#325000
0&
0$
09
0A
1Z
1Q
1N
0H
0<
0J
03
0(
#330000
1$
1A
0Z
#340000
1&
19
0Q
0N
1H
1<
1J
13
1(
#345000
0&
09
1Q
1N
0H
0<
0J
03
0(
#350000
0$
0A
1Z
#360000
1$
1A
0Z
#365000
0$
0A
1Z
#370000
1$
1A
0Z
#375000
1&
0$
19
0A
1Z
0Q
0N
1H
1<
1J
13
1(
#380000
0&
09
1Q
1N
0H
0<
0J
03
0(
#385000
1$
1&
1A
19
0Z
0Q
0N
1H
1<
1J
13
1(
#395000
0$
0A
1Z
#400000
0&
09
1Q
1N
0H
0<
0J
03
0(
#405000
1$
1A
0Z
#410000
1&
19
0Q
0N
1H
1<
1J
13
1(
#415000
0$
0&
0A
09
1Z
1Q
1N
0H
0<
0J
03
0(
#420000
1$
1&
1A
19
0Z
0Q
0N
1H
1<
1J
13
1(
#425000
0&
09
1Q
1N
0H
0<
0J
03
0(
#430000
1&
19
0Q
0N
1H
1<
1J
13
1(
#435000
0&
09
1Q
1N
0H
0<
0J
03
0(
#455000
0$
1&
0A
19
1Z
0Q
0N
1H
1<
1J
13
1(
#460000
1$
0&
1A
09
0Z
1Q
1N
0H
0<
0J
03
0(
#470000
1&
19
0Q
0N
1H
1<
1J
13
1(
#475000
0$
0A
1Z
#480000
1$
1A
0Z
#485000
0$
0A
1Z
#490000
1$
1A
0Z
#495000
0&
09
1Q
1N
0H
0<
0J
03
0(
#500000
1&
19
0Q
0N
1H
1<
1J
13
1(
#505000
0$
0&
0A
09
1Z
1Q
1N
0H
0<
0J
03
0(
#510000
1&
19
0Q
0N
1H
1<
1J
13
1(
#515000
0&
09
1Q
1N
0H
0<
0J
03
0(
#520000
1$
1A
0Z
#525000
0$
0A
1Z
#530000
1$
1A
0Z
#540000
0$
0A
1Z
#545000
1$
1A
0Z
#550000
1&
0$
19
0A
1Z
0Q
0N
1H
1<
1J
13
1(
#555000
0&
09
1Q
1N
0H
0<
0J
03
0(
#560000
1$
1A
0Z
#570000
1&
0$
19
0A
1Z
0Q
0N
1H
1<
1J
13
1(
#575000
0&
1$
09
1A
0Z
1Q
1N
0H
0<
0J
03
0(
#580000
0$
0A
1Z
#585000
1&
19
0Q
0N
1H
1<
1J
13
1(
#590000
1$
1A
0Z
#595000
0&
0$
09
0A
1Z
1Q
1N
0H
0<
0J
03
0(
#600000
1&
1$
19
1A
0Z
0Q
0N
1H
1<
1J
13
1(
#605000
0&
0$
09
0A
1Z
1Q
1N
0H
0<
0J
03
0(
#620000
1&
19
0Q
0N
1H
1<
1J
13
1(
#625000
1$
1A
0Z
#630000
0$
0A
1Z
#635000
0&
1$
09
1A
0Z
1Q
1N
0H
0<
0J
03
0(
#640000
1&
19
0Q
0N
1H
1<
1J
13
1(
#645000
0&
09
1Q
1N
0H
0<
0J
03
0(
#650000
0$
0A
1Z
#655000
1&
19
0Q
0N
1H
1<
1J
13
1(
#660000
1$
1A
0Z
#665000
0&
09
1Q
1N
0H
0<
0J
03
0(
#670000
1&
19
0Q
0N
1H
1<
1J
13
1(
#680000
0&
09
1Q
1N
0H
0<
0J
03
0(
#690000
0$
1&
0A
19
1Z
0Q
0N
1H
1<
1J
13
1(
#695000
1$
0&
1A
09
0Z
1Q
1N
0H
0<
0J
03
0(
#700000
0$
0A
1Z
#710000
1&
19
0Q
0N
1H
1<
1J
13
1(
#715000
1$
0&
1A
09
0Z
1Q
1N
0H
0<
0J
03
0(
#720000
1&
19
0Q
0N
1H
1<
1J
13
1(
#725000
0$
0A
1Z
#735000
1$
1A
0Z
#740000
0&
0$
09
0A
1Z
1Q
1N
0H
0<
0J
03
0(
#745000
1&
1$
19
1A
0Z
0Q
0N
1H
1<
1J
13
1(
#750000
0$
0A
1Z
#755000
1$
1A
0Z
#760000
0&
0$
09
0A
1Z
1Q
1N
0H
0<
0J
03
0(
#765000
1&
1$
19
1A
0Z
0Q
0N
1H
1<
1J
13
1(
#770000
0&
0$
09
0A
1Z
1Q
1N
0H
0<
0J
03
0(
#775000
1&
1$
19
1A
0Z
0Q
0N
1H
1<
1J
13
1(
#780000
0&
09
1Q
1N
0H
0<
0J
03
0(
#790000
0$
1&
0A
19
1Z
0Q
0N
1H
1<
1J
13
1(
#795000
1$
0&
1A
09
0Z
1Q
1N
0H
0<
0J
03
0(
#800000
0$
1&
0A
19
1Z
0Q
0N
1H
1<
1J
13
1(
#815000
1$
0&
1A
09
0Z
1Q
1N
0H
0<
0J
03
0(
#820000
0$
0A
1Z
#825000
1&
1$
19
1A
0Z
0Q
0N
1H
1<
1J
13
1(
#830000
0&
09
1Q
1N
0H
0<
0J
03
0(
#835000
0$
0A
1Z
#840000
1$
1A
0Z
#850000
0$
0A
1Z
#855000
1&
19
0Q
0N
1H
1<
1J
13
1(
#860000
0&
09
1Q
1N
0H
0<
0J
03
0(
#865000
1$
1A
0Z
#870000
0$
0A
1Z
#875000
1&
19
0Q
0N
1H
1<
1J
13
1(
#880000
1$
0&
1A
09
0Z
1Q
1N
0H
0<
0J
03
0(
#885000
0$
0A
1Z
#890000
1$
1A
0Z
#895000
1&
19
0Q
0N
1H
1<
1J
13
1(
#900000
0$
0&
0A
09
1Z
1Q
1N
0H
0<
0J
03
0(
#905000
1$
1A
0Z
#910000
1&
19
0Q
0N
1H
1<
1J
13
1(
#915000
0$
0&
0A
09
1Z
1Q
1N
0H
0<
0J
03
0(
#920000
1$
1A
0Z
#925000
0$
0A
1Z
#935000
1$
1A
0Z
#945000
1&
19
0Q
0N
1H
1<
1J
13
1(
#950000
0$
0&
0A
09
1Z
1Q
1N
0H
0<
0J
03
0(
#960000
1$
1A
0Z
#965000
0$
0A
1Z
#970000
1&
1$
19
1A
0Z
0Q
0N
1H
1<
1J
13
1(
#975000
0$
0A
1Z
#980000
0&
09
1Q
1N
0H
0<
0J
03
0(
#990000
1$
1A
0Z
#995000
1&
19
0Q
0N
1H
1<
1J
13
1(
